<?xml version="1.0" encoding="utf-8"?>
<!-- Generator: Adobe Illustrator 21.1.0, SVG Export Plug-In . SVG Version: 6.00 Build 0)  -->
<svg class="roulette-svg" version="1.1" id="Layer_1" xmlns="http://www.w3.org/2000/svg" xmlns:xlink="http://www.w3.org/1999/xlink" x="0px" y="0px"
	 viewBox="0 0 512 512" style="enable-background:new 0 0 512 512;" xml:space="preserve">
<style type="text/css">
	.st0{fill:#FFFFFF;}
	.st1{fill:#F46C0F;}
	.st2{fill:#F7A76F;}
	.st3{fill:#A0D468;}
	.st4{fill:#E6E9ED;}
	.st5{fill:#434A54;}
	.st6{fill:#656D78;}
</style>
<path class="st0" d="M470.7,165.3c-11.7-27.7-28.5-52.7-49.9-74.1c-21.4-21.4-46.3-38.2-74.1-49.9C318,29.2,287.4,23,256,23
	c-31.5,0-62,6.2-90.7,18.3C137.5,53,112.6,69.8,91.2,91.2c-21.4,21.4-38.2,46.3-49.9,74.1C29.1,194,23,224.5,23,256
	c0,31.5,6.2,62,18.3,90.7c11.7,27.7,28.5,52.7,49.9,74.1c21.4,21.4,46.3,38.2,74.1,49.9C194,482.8,224.5,489,256,489
	c31.5,0,62-6.2,90.7-18.3c27.7-11.7,52.7-28.5,74.1-49.9c21.4-21.4,38.2-46.3,49.9-74.1C482.8,318,489,287.4,489,256
	C489,224.5,482.8,194,470.7,165.3z"/>
<path class="st1" d="M406.8,105.2C366.6,64.9,313,42.7,256,42.7s-110.6,22.2-150.8,62.5C64.9,145.5,42.7,199,42.7,256
	c0,57,22.2,110.6,62.5,150.9c40.3,40.3,93.9,62.5,150.8,62.5s110.6-22.2,150.8-62.5c40.3-40.3,62.5-93.9,62.5-150.9
	C469.3,199,447.1,145.5,406.8,105.2z"/>
<g>
	<path class="st2" d="M174.3,453.2c25.5,10.6,53.2,16.1,81.7,16.1V256L174.3,453.2z"/>
	<path class="st2" d="M337.7,58.8c-25.6-10.6-53.2-16.1-81.7-16.1V256L337.7,58.8z"/>
	<path class="st2" d="M337.7,453.2c25.5-10.6,49-26.2,69.2-46.3L256,256L337.7,453.2z"/>
	<path class="st2" d="M174.3,58.8c-25.6,10.6-49,26.2-69.2,46.3L256,256L174.3,58.8z"/>
</g>
<path class="st3" d="M453.2,337.7c10.6-25.5,16.1-53.2,16.1-81.7H256L453.2,337.7z"/>
<g>
	<path class="st2" d="M58.8,174.3c-10.6,25.5-16.1,53.2-16.1,81.7H256L58.8,174.3z"/>
	<path class="st2" d="M453.2,174.3c-10.6-25.6-26.2-49-46.4-69.2L256,256L453.2,174.3z"/>
	<path class="st2" d="M58.8,337.7c10.6,25.6,26.2,49,46.3,69.2L256,256L58.8,337.7z"/>
</g>
<path class="st0" d="M350.9,256c0,52.4-42.5,94.9-94.9,94.9s-94.9-42.5-94.9-94.9c0-52.4,42.5-94.9,94.9-94.9S350.9,203.6,350.9,256
	z"/>
<path class="st4" d="M348.9,135.5c-4.2,4.2-10.9,4.2-15.1,0c-4.2-4.2-4.2-10.9,0-15.1c4.2-4.2,10.9-4.2,15.1,0
	C353,124.6,353,131.4,348.9,135.5z"/>
<g>
	<path class="st5" d="M256,320c-5.9,0-10.7-4.8-10.7-10.7V202.7c0-5.9,4.8-10.7,10.7-10.7c5.9,0,10.7,4.8,10.7,10.7v106.7
		C266.7,315.2,261.9,320,256,320z"/>
	<path class="st5" d="M309.3,266.7H202.7c-5.9,0-10.7-4.8-10.7-10.7c0-5.9,4.8-10.7,10.7-10.7h106.7c5.9,0,10.7,4.8,10.7,10.7
		C320,261.9,315.2,266.7,309.3,266.7z"/>
</g>
<path class="st6" d="M256,224c-17.6,0-32,14.4-32,32c0,17.7,14.4,32,32,32c17.7,0,32-14.3,32-32C288,238.4,273.6,224,256,224z"/>
<path class="st0" d="M236.6,82.5c-4-4-10.5-4-14.6,0c0,0,0,0,0,0c-2.2,2.2-3.8,4.8-3.8,8.7v5.2l-2.5,2.5c-0.6,0.6-1.5,0.7-2.2,0.4
	c-1.9-0.8-4,0.2-4.8,2c-0.5,1.4-0.2,2.9,0.8,4c0.9,0.9,2.2,1.2,3.4,0.9c-0.3,1.2,0,2.5,0.9,3.4c1.4,1.4,3.8,1.4,5.2,0
	c1-1,1.4-2.6,0.8-4c-0.3-0.8-0.2-1.6,0.4-2.2l2.5-2.5h5.2c3.9,0,6.5-1.7,8.7-3.8C240.6,93,240.6,86.5,236.6,82.5z"/>
<path class="st0" d="M284,88.4c0.1,0.5,0.5,0.8,1,0.8h1c0.6,0,1.1-0.5,1-1.1c-0.2-1.7-1-3.3-2.2-4.6c-0.9-0.9-1.4-2-1.6-3.3
	c-0.1-0.5-0.5-0.8-1-0.8h-1c-0.5,0-1,0.4-1,1c0,0,0,0.1,0,0.1c0.2,1.9,1.1,3.7,2.5,5.1C283.4,86.4,283.9,87.4,284,88.4L284,88.4z
	 M290.9,88.4c0.1,0.5,0.5,0.8,1,0.8h1c0.6,0,1.1-0.5,1-1.1c-0.2-1.7-1-3.3-2.2-4.6c-0.9-0.9-1.4-2-1.6-3.3c-0.1-0.5-0.5-0.8-1-0.8
	h-1c-0.6,0-1.1,0.5-1,1.1c0.2,1.9,1.1,3.7,2.5,5.1C290.2,86.4,290.7,87.4,290.9,88.4L290.9,88.4z M301.6,91.2h-27.3
	c-1.1,0-1.9,0.9-1.9,1.9c0,5.8,3.1,10.8,7.8,13.5v2.1c0,1.1,0.9,1.9,1.9,1.9h11.7c1.1,0,1.9-0.9,1.9-1.9v-2.1
	c4.7-2.7,7.8-7.7,7.8-13.5C303.6,92,302.7,91.2,301.6,91.2z"/>
<path class="st0" d="M165.9,107.7c-1.6,0-3.1,1.4-3.8,3.6c-0.4,1.3-1.6,6.4-10.4,10.2c-8.4,3.6,9.9,10.2,19.4-0.6
	c2.3-2.6,2-7.6-0.7-10.6C168.9,108.6,167.3,107.7,165.9,107.7z M166.8,117.3c-1.1,0-1.9-0.9-1.9-1.9s0.9-1.9,1.9-1.9
	s1.9,0.9,1.9,1.9S167.9,117.3,166.8,117.3z M174.7,106.5c-2.8-3.2-5.9-4.6-8.8-4.6c-4.3,0-7.9,3.1-9.3,7.8c-3,8.4-12.8,5-12.9,13.4
	c-0.1,7.3,8.4,9.9,15.4,9.6c5.3-0.2,11.3-2.2,16.3-7.9C179.7,120,179.3,111.8,174.7,106.5z M172.5,122.3c-4.6,5.2-9.9,6.5-13.6,6.6
	c-2.3,0.1-7.9-0.4-10.3-2.8c-0.2-0.2-3.6-3.7,2.3-6.3c4.3-1.9,8-4.3,9.4-9c0.9-3.1,3.1-5,5.6-5c2,0,4,1.1,5.9,3.3
	C175.2,112.9,175.5,118.9,172.5,122.3L172.5,122.3z"/>
<path class="st0" d="M394.3,159.8c-3.1-1.5-6.7-0.6-8.8,1.9l3.2,3.2c0.4,0.4,0.4,1,0,1.3c-0.2,0.2-0.4,0.3-0.7,0.3s-0.5-0.1-0.7-0.3
	l-2.9-2.9l-7.5,15.3c-0.2,0.4-0.2,0.8,0,1.2c0.3,0.6,1.1,0.9,1.8,0.6l7.8-3.8l-2.9-2.9c-0.4-0.4-0.4-1,0-1.3c0.4-0.4,1-0.4,1.3,0
	l3.3,3.3l6-2.9c1.4-0.7,2.6-1.8,3.3-3.3C399.4,165.9,397.9,161.6,394.3,159.8L394.3,159.8z M399.7,157.8c1.1-2.4,0.5-5.2-1.8-7.1
	c-2.9,2.4-3.1,6.3-0.5,8.9l0.5,0.5c2.6,2.6,6.4,2.5,8.9-0.5C404.9,157.2,402.1,156.6,399.7,157.8L399.7,157.8z"/>
<path class="st0" d="M420.1,236.6l-4.7-22.1c-0.3-1.4-1.7-2.3-3.1-2c-1.4,0.3-2.3,1.7-2,3.1l4.7,22.1c0.3,1.4,1.7,2.3,3.1,2
	C419.5,239.4,420.4,238,420.1,236.6L420.1,236.6z M413.4,238.9l-5-23.8c-0.1-0.5-0.6-0.8-1-0.7l-0.9,0.2c-1.9,0.4-3.1,2.2-2.7,4.1
	l3.9,18.7c0.4,1.9,2.2,3.1,4.1,2.7l0.9-0.2C413.2,239.8,413.5,239.3,413.4,238.9z M417.2,214.7l4.4,21c0.4,1.8,2.9,2.4,4.4,1
	c3-2.9,4.7-8.1,3.6-13.6c-1.2-5.5-4.9-9.6-8.8-11C418.9,211.3,416.8,212.9,417.2,214.7z M426.8,230.7c0.1,0.5-0.2,0.9-0.7,1
	s-0.9-0.2-1-0.7s0.2-0.9,0.7-1C426.3,230,426.7,230.3,426.8,230.7z M427.1,223.6c0.1,0.5-0.2,0.9-0.7,1c-0.5,0.1-0.9-0.2-1-0.7
	c-0.1-0.5,0.2-0.9,0.7-1S427,223.1,427.1,223.6z M424,217.1c0.1,0.5-0.2,0.9-0.7,1c-0.5,0.1-0.9-0.2-1-0.7s0.2-0.9,0.7-1
	C423.4,216.4,423.9,216.7,424,217.1z"/>
<path class="st0" d="M417.5,297.4l0.3-1.9c0.1-0.4-0.1-0.8-0.5-0.9c-2.1-0.8-3.3-4-2.8-7.6c0.5-3.6,2.6-6.3,4.9-6.5
	c0.4,0,0.7-0.4,0.7-0.8l0.3-1.9c0.1-0.5-0.3-1-0.8-1c-0.1,0-0.1,0-0.2,0l-14,1.1c-0.8,0.1-1.5,0.7-1.6,1.5l-1.7,11.9
	c-0.1,0.8,0.4,1.6,1.1,1.9l13.1,5c0.5,0.2,1-0.1,1.2-0.5C417.5,297.5,417.5,297.4,417.5,297.4z M417.9,292.8c0.1,0,0.2,0.1,0.3,0.2
	l9.4,3.1c0.5,0.2,1-0.1,1.1-0.6c0-0.1,0.1-0.3,0-0.4l-0.3-2c0-0.2-0.2-0.4-0.4-0.6l-11.6-1.7C416.8,291.9,417.3,292.6,417.9,292.8
	L417.9,292.8z M419.3,297.6l5.1,1.7c0.5,0.2,1-0.1,1.1-0.6c0-0.1,0.1-0.3,0-0.4l-0.1-1l-5.8-1.9c0,0.1,0,0.3,0,0.4L419.3,297.6z
	 M416.1,289l13.2,1.9c0.3,0,0.7-0.1,0.9-0.4l1.2-1.7c0.3-0.4,0.2-1-0.2-1.3c-0.1-0.1-0.2-0.1-0.4-0.2l-14.1-2
	C416.2,286.5,416.1,287.8,416.1,289z M421.8,279.9c0,0.2-0.1,0.4-0.2,0.6l6.1-0.3l0.5-1.1c0.2-0.5,0-1-0.4-1.2
	c-0.1-0.1-0.3-0.1-0.4-0.1l-5.3,0.2L421.8,279.9z M417.5,283.7l12.6,1.8l1.2,0c0.5,0,0.9-0.4,0.9-0.9c0-0.1,0-0.3-0.1-0.4l-1-1.8
	c-0.2-0.3-0.5-0.5-0.8-0.5l-11.3,0.5C418.4,282.6,417.9,283.1,417.5,283.7L417.5,283.7z"/>
<path class="st0" d="M407.1,338.3c-2.5-2.6-6.4-3-9.2-5.3c-3.2-2.6-5.6-5-10.1-4.2c-5.6,0.9-7.1,5.1-8,10.1
	c-0.7,4.1-3.5,8.1-3.2,12.3c0.3,4.2,3.4,8.2,7.4,9.6c6,2.1,9.4-2,13.1-5.5c2.8-2.7,6-2.4,9-4.7C409.6,347.9,410.6,341.6,407.1,338.3
	L407.1,338.3z M390.8,351.2c-4,0-7.2-3.2-7.2-7.2c0-4,3.2-7.2,7.2-7.2c4,0,7.2,3.2,7.2,7.2C398,348,394.8,351.2,390.8,351.2z
	 M390.3,338.9c-2.5,0-4.6,2.1-4.6,4.6c0,0.6,0.5,1,1,1c0.6,0,1-0.5,1-1c0-1.4,1.1-2.6,2.6-2.6c0.6,0,1-0.5,1-1
	C391.4,339.4,390.9,338.9,390.3,338.9z"/>
<path class="st0" d="M124,159.3c-5.2,0-9.7,3.4-12.2,6.3l-5-4.1c-0.7-0.6-1.7,0-1.6,0.9l1.4,6.8l-1.4,6.8c-0.2,0.9,0.9,1.5,1.6,0.9
	l5-4.1c2.5,2.9,7,6.3,12.2,6.3c7.9,0,14.3-8,14.3-10S131.9,159.3,124,159.3z M117.9,169.5l-0.6-0.6c-0.2-0.2-0.2-0.4,0-0.6l4.4-4.4
	c0.2-0.2,0.4-0.2,0.6,0c0,0,0,0,0,0l0.6,0.6c0.2,0.2,0.2,0.4,0,0.6c0,0,0,0,0,0l-4.4,4.4C118.3,169.7,118,169.7,117.9,169.5
	C117.9,169.5,117.9,169.5,117.9,169.5z M121,173.7c-0.2,0.2-0.4,0.2-0.6,0l-0.6-0.6c-0.2-0.2-0.2-0.4,0-0.6l7.7-7.7
	c0.2-0.2,0.4-0.2,0.6,0c0,0,0,0,0,0l0.6,0.6c0.2,0.2,0.2,0.4,0,0.6c0,0,0,0,0,0L121,173.7z M131.1,170.1l-4.4,4.4
	c-0.2,0.2-0.4,0.2-0.6,0l-0.6-0.6c-0.2-0.2-0.2-0.4,0-0.6l4.4-4.4c0.2-0.2,0.4-0.2,0.6,0c0,0,0,0,0,0l0.6,0.6
	C131.3,169.7,131.3,170,131.1,170.1C131.1,170.1,131.1,170.1,131.1,170.1z"/>
<path class="st0" d="M89,212.2c-0.9-0.1-1.7,0.5-1.9,1.3l-0.8,3c10.1,0.3,16.9,7,17.4,17.1l3.1-0.8c0.8-0.2,1.4-1.1,1.3-1.9
	C106.9,221.1,98.8,213.1,89,212.2z M85.8,218.2l-5.4,20.4c-0.1,0.5,0.2,0.9,0.6,1.1c0.1,0,0.3,0,0.5,0l20.4-5.7
	C101.7,224.7,95.3,218.4,85.8,218.2L85.8,218.2z M87.3,234.6c-1,0-1.7-0.8-1.7-1.7s0.8-1.7,1.7-1.7c1,0,1.7,0.8,1.7,1.7
	S88.3,234.6,87.3,234.6z M89.9,226.4c-1,0-1.7-0.8-1.7-1.7s0.8-1.7,1.7-1.7s1.7,0.8,1.7,1.7S90.9,226.4,89.9,226.4z M95.5,232
	c-1,0-1.7-0.8-1.7-1.7c0-1,0.8-1.7,1.7-1.7c1,0,1.7,0.8,1.7,1.7C97.2,231.3,96.5,232,95.5,232z"/>
<path class="st0" d="M95.8,298l-1.1-4.1l-3.6,6.2c-0.1,0.2-0.4,0.3-0.6,0.2l-0.8-0.5c-0.2-0.1-0.3-0.4-0.2-0.6l4.2-7.4l-8.2,2.2
	c-0.2,0.1-0.5-0.1-0.6-0.3l-0.2-0.9c-0.1-0.2,0.1-0.5,0.3-0.6l8.5-2.3l-0.8-3c-0.5,0.3-1.1,0.6-1.7,0.7c-4,1.1-8.1-1.3-9.2-5.2
	c0-0.1,0-0.3-0.1-0.4c-0.9,1.3-1.2,2.9-0.7,4.5c0.1,0.5,0.3,0.9,0.6,1.4c-2.8,2.2-3.3,6.4-1,9.2c1,1.3,2.5,2.2,4.2,2.4
	c0,0.5,0.1,1,0.2,1.5c0.8,3,3.9,4.7,6.9,3.9C94.8,304.1,96.6,301,95.8,298z M90.5,285.9c0.6-0.2,1.2-0.5,1.7-0.8l-2.6-9.5
	c-0.1-0.2-0.1-0.4-0.1-0.6c-3.1-0.3-5.8,2-6.1,5.1c-0.3,3.1,2,5.8,5.1,6.1C89.2,286.2,89.9,286.1,90.5,285.9z M91.4,275.1l7.4,26.9
	c0.1,0.5,0.7,0.8,1.2,0.6c4.2-1.5,6.9-5.4,7.3-9.7l0.6-0.2c1-0.3,1.6-1.3,1.3-2.3l-2.9-10.8c-0.3-1-1.3-1.6-2.3-1.3l-0.6,0.2
	c-2.5-3.5-6.8-5.4-11.2-4.6C91.6,274,91.3,274.6,91.4,275.1z"/>
<path class="st0" d="M132.6,332.6l0.9-2.8c0.2-0.6-0.1-1.2-0.7-1.4c-0.1,0-0.2-0.1-0.4-0.1h-3.7c-0.6,0-1.1,0.5-1.1,1.1
	c0,0.1,0,0.2,0.1,0.4l0.9,2.8c-2.3,0.8-4,3-4,5.6c0,5.4-4.4,9.9-9.9,9.9c-2.6,0-4.7,1.7-5.6,4l-2.8-0.9c-0.6-0.2-1.2,0.1-1.4,0.7
	c0,0.1-0.1,0.2-0.1,0.4v3.7c0,0.6,0.5,1.1,1.1,1.1c0.1,0,0.2,0,0.4-0.1l2.8-0.9c0.8,2.3,3,4,5.6,4c12,0,21.7-9.7,21.7-21.7
	C136.5,335.6,134.9,333.4,132.6,332.6L132.6,332.6z M114.8,352.9c-0.5,0-1-0.4-1-1s0.4-1,1-1c7.1,0,12.8-5.8,12.8-12.8
	c0-0.5,0.4-1,1-1c0.5,0,1,0.4,1,1C129.6,346.3,123,352.9,114.8,352.9z"/>
<path class="st0" d="M350.7,395.8c6.7-4.5,8.5-13.7,4.6-21.5c-0.6-1.2-2.1-1.7-3.1-1l-23,15.5c-1,0.7-1.1,2.2-0.2,3.2
	C334.8,398.5,344,400.3,350.7,395.8z M350.4,379.3c0.5-0.3,1.1-0.2,1.4,0.3s0.2,1.1-0.3,1.4c-0.5,0.3-1.1,0.2-1.4-0.3
	C349.8,380.2,349.9,379.6,350.4,379.3z M349.3,384.8c0.5-0.3,1.1-0.2,1.4,0.3s0.2,1.1-0.3,1.4s-1.1,0.2-1.4-0.3
	C348.7,385.7,348.8,385.1,349.3,384.8z M360.5,382.7c-0.4-0.4-0.9-0.8-1.2-1.3c0.4,6.4-2.2,12.5-7.4,16c-5.2,3.5-11.9,3.6-17.7,0.9
	c0.3,0.5,0.6,1,0.7,1.6c0,0,0,0,0,0c0.3,1.1,0.7,2.3,1.7,3c1,0.7,2.3,0.7,3.4,0.6c0.7,0,1.4-0.1,1.8,0.1c0.5,0.2,1,0.7,1.5,1.2
	c0.8,0.8,1.8,1.7,3,1.8c1.2,0.1,2.2-0.7,3.1-1.4c0.5-0.4,1.1-0.8,1.5-1c0.4-0.1,1.1,0,1.8,0.1c2.4,0.4,4.1,0.5,5.1-3.4
	c0.2-0.7,0.3-1.3,0.6-1.7c0.3-0.4,0.9-0.7,1.5-1.1c1-0.6,2.1-1.2,2.4-2.4c0.4-1.1-0.1-2.4-0.5-3.4c-0.3-0.7-0.5-1.4-0.5-1.9
	c0-0.5,0.3-1.1,0.6-1.7c0.5-1,1-2.1,0.7-3.4C362.3,384.2,361.3,383.4,360.5,382.7C360.5,382.7,360.5,382.7,360.5,382.7L360.5,382.7z
	"/>
<path class="st0" d="M272.6,427.9c3.5,4.5,10,5.3,14.5,1.8c0,0,0,0,0,0c2.4-1.9,4.4-4.3,4.9-8.1l0.6-5.2l2.8-2.1
	c0.7-0.5,1.5-0.5,2.3-0.1c1.8,1,4,0.3,5-1.4c0.7-1.3,0.6-2.9-0.3-4c-0.8-1-2.1-1.5-3.3-1.3c0.4-1.2,0.3-2.5-0.5-3.5
	c-1.2-1.6-3.6-1.9-5.2-0.7c-1.2,0.9-1.7,2.4-1.3,3.8c0.2,0.8,0,1.7-0.6,2.2l-2.8,2.1l-5.2-0.6c-3.9-0.5-6.7,0.9-9.1,2.7
	C269.9,416.9,269.1,423.4,272.6,427.9z"/>
<path class="st0" d="M164.2,402.7c0.1-0.5-0.1-1-0.5-1.2l-0.9-0.5c-0.5-0.3-1.2,0-1.4,0.5c-0.6,1.6-0.6,3.4-0.1,5.1
	c0.4,1.2,0.4,2.5,0,3.6c-0.2,0.5,0.1,1,0.5,1.2l0.9,0.5c0.5,0.3,1.1,0.1,1.3-0.4c0,0,0-0.1,0-0.1c0.7-1.8,0.7-3.8,0.1-5.7
	C163.9,404.8,163.9,403.7,164.2,402.7L164.2,402.7z M158.1,399.7c0.1-0.5-0.1-1-0.5-1.2l-0.9-0.5c-0.5-0.3-1.2,0-1.4,0.5
	c-0.6,1.6-0.6,3.4-0.1,5.1c0.4,1.2,0.4,2.5,0,3.6c-0.2,0.5,0.1,1,0.5,1.2l0.9,0.5c0.5,0.3,1.2,0,1.4-0.5c0.7-1.8,0.7-3.8,0.1-5.7
	C157.8,401.7,157.8,400.6,158.1,399.7L158.1,399.7z M149.7,392.3l24.3,12.3c1,0.5,2.1,0.1,2.6-0.9c2.6-5.1,2.1-11-0.9-15.6l1-1.9
	c0.5-1,0.1-2.1-0.9-2.6l-10.4-5.3c-1-0.5-2.1-0.1-2.6,0.9l-1,1.9c-5.4,0.3-10.4,3.4-13,8.5C148.4,390.7,148.8,391.8,149.7,392.3z"/>
<path class="st0" d="M220.4,421.9c3,1.6,6.7,0.9,8.8-1.6l-3.1-3.3c-0.4-0.4-0.3-1,0-1.3c0.2-0.2,0.4-0.3,0.7-0.3
	c0.2,0,0.5,0.1,0.6,0.3l2.8,3l8-15.1c0.2-0.3,0.2-0.8,0-1.2c-0.3-0.7-1.1-1-1.7-0.7l-7.9,3.5l2.8,3c0.4,0.4,0.3,1,0,1.3
	c-0.4,0.3-1,0.3-1.3,0l-3.2-3.4l-6.1,2.7c-1.4,0.6-2.7,1.7-3.5,3.2C215.5,415.6,216.8,420,220.4,421.9L220.4,421.9z M214.9,423.7
	c-1.2,2.3-0.7,5.2,1.5,7.2c3-2.3,3.3-6.2,0.8-8.9l-0.5-0.5c-2.5-2.7-6.4-2.7-8.9,0.1C209.7,424.1,212.5,424.8,214.9,423.7
	L214.9,423.7z"/>
</svg>
